{
  "type": "minecraft:ore",
  "config": {
    "discard_chance_on_air_exposure": 0.0,
    "size": 8,
    "targets": [
      {
        "state": {
          "Name": "quickiefabric:sandsalpeter"
        },
        "target": {
          "predicate_type": "minecraft:block_match",
          "block": "minecraft:sand"
        }
      }
    ]
  }
}