{
  "type": "crafting_shaped",
  "pattern": [
    "wlw",
    "lsl",
    "wlw"
  ],
  "key": {
    "s": {
      "item": "minecraft:string"
    },
    "l": {
      "item": "minecraft:leather"
    },
    "w": {
      "item": "minecraft:pink_wool"
    }
  },
  "result": {
    "item": "quickiefabric:backpack_pink"
  }
}