{
	"type": "minecraft:crafting_shaped",
	"pattern": [
		" s ",
		"scs",
		" s "
	],
	"key": {
		"s": {
			"item": "quickiefabric:speedpowder"
		},
		"c": {
			"item": "minecraft:chest"
		}
	},
	"result": {
		"item": "quickiefabric:blockspreader",
		"count": 1
	}
}