{
	"type": "minecraft:crafting_shaped",
	"pattern": [
		"sss",
		"srs",
		"sss"
	],
	"key": {
		"s": {
			"item": "quickiefabric:speedpowder"
		},
		"r": {
		    "item": "minecraft:redstone_block"
		}
	},
	"result": {
		"item": "quickiefabric:drill",
		"count": 1
	}
}