{
	"type": "minecraft:blasting",
	"group": "ores",
	"ingredient": [
		{
			"item": "minecraft:dead_bubble_coral_block"
		}
	],
	"result": "quickiefabric:salpeter",
	"count": 3,
	"experience": 0.5,
	"cookingtime": 200
}
