{
	"type": "minecraft:crafting_shapeless",
  "ingredients": [
    {
      "item": "minecraft:water_bucket"
    },
    {
      "item": "quickiefabric:speedpowderhoe"
    }
  ],
  "result": {
    "item": "quickiefabric:speedpowderwaterhoe",
    "count": 1
  }
}