{
    "variants": {
        "age=0": { "model": "quickiefabric:block/cottonplant0" },
        "age=1": { "model": "quickiefabric:block/cottonplant1" },
        "age=2": { "model": "quickiefabric:block/cottonplant1" },
        "age=3": { "model": "quickiefabric:block/cottonplant2" },
        "age=4": { "model": "quickiefabric:block/cottonplant2" },
        "age=5": { "model": "quickiefabric:block/cottonplant3" },
        "age=6": { "model": "quickiefabric:block/cottonplant3" },
        "age=7": { "model": "quickiefabric:block/cottonplant4" }
    }
}