{
	"parent": "block/cube_directional",
	"textures": {
	  "up": "quickiefabric:block/blockstackerup",
	  "down": "quickiefabric:block/blockstackerup",
		"north": "quickiefabric:block/blockstackerout",
		"east": "quickiefabric:block/blockstackerup",
		"south": "quickiefabric:block/blockstackerin",
		"west": "quickiefabric:block/blockstackerup"
	}
}